[
  {"playerId":1,"gameId":50},
  {"playerId":2,"gameId":7},
  {"playerId":2,"gameId":8},
  {"playerId":2,"gameId":15},
  {"playerId":2,"gameId":16},
  {"playerId":2,"gameId":17},
  {"playerId":2,"gameId":41},
  {"playerId":2,"gameId":43},
  {"playerId":2,"gameId":44},
  {"playerId":2,"gameId":47},
  {"playerId":2,"gameId":50},
  {"playerId":2,"gameId":51},
  {"playerId":2,"gameId":52},
  {"playerId":2,"gameId":53},
  {"playerId":2,"gameId":54},
  {"playerId":4,"gameId":3},
  {"playerId":4,"gameId":4},
  {"playerId":4,"gameId":7},
  {"playerId":4,"gameId":8},
  {"playerId":4,"gameId":16},
  {"playerId":4,"gameId":24},
  {"playerId":4,"gameId":41},
  {"playerId":4,"gameId":44},
  {"playerId":4,"gameId":45},
  {"playerId":4,"gameId":53},
  {"playerId":4,"gameId":54},
  {"playerId":5,"gameId":3},
  {"playerId":5,"gameId":7},
  {"playerId":5,"gameId":19},
  {"playerId":5,"gameId":24},
  {"playerId":5,"gameId":49},
  {"playerId":5,"gameId":50},
  {"playerId":5,"gameId":51},
  {"playerId":5,"gameId":53},
  {"playerId":6,"gameId":5},
  {"playerId":6,"gameId":18},
  {"playerId":6,"gameId":20},
  {"playerId":6,"gameId":32},
  {"playerId":6,"gameId":43},
  {"playerId":6,"gameId":54},
  {"playerId":7,"gameId":13},
  {"playerId":7,"gameId":17},
  {"playerId":7,"gameId":24},
  {"playerId":7,"gameId":35},
  {"playerId":7,"gameId":36},
  {"playerId":7,"gameId":37},
  {"playerId":7,"gameId":39},
  {"playerId":8,"gameId":16},
  {"playerId":8,"gameId":17},
  {"playerId":8,"gameId":18},
  {"playerId":8,"gameId":34},
  {"playerId":8,"gameId":43},
  {"playerId":8,"gameId":49},
  {"playerId":8,"gameId":53},
  {"playerId":8,"gameId":54},
  {"playerId":9,"gameId":12},
  {"playerId":9,"gameId":13},
  {"playerId":9,"gameId":14},
  {"playerId":9,"gameId":17},
  {"playerId":9,"gameId":19},
  {"playerId":9,"gameId":35},
  {"playerId":9,"gameId":36},
  {"playerId":9,"gameId":39},
  {"playerId":10,"gameId":4},
  {"playerId":10,"gameId":9},
  {"playerId":10,"gameId":13},
  {"playerId":10,"gameId":16},
  {"playerId":10,"gameId":17},
  {"playerId":10,"gameId":19},
  {"playerId":10,"gameId":24},
  {"playerId":10,"gameId":30},
  {"playerId":10,"gameId":33},
  {"playerId":10,"gameId":40},
  {"playerId":10,"gameId":41},
  {"playerId":10,"gameId":42},
  {"playerId":10,"gameId":44},
  {"playerId":10,"gameId":46},
  {"playerId":10,"gameId":47},
  {"playerId":10,"gameId":48},
  {"playerId":10,"gameId":49},
  {"playerId":10,"gameId":51},
  {"playerId":10,"gameId":54},
  {"playerId":11,"gameId":4},
  {"playerId":11,"gameId":5},
  {"playerId":11,"gameId":35},
  {"playerId":11,"gameId":36},
  {"playerId":11,"gameId":48},
  {"playerId":11,"gameId":49},
  {"playerId":11,"gameId":51},
  {"playerId":12,"gameId":4},
  {"playerId":12,"gameId":30},
  {"playerId":12,"gameId":33},
  {"playerId":12,"gameId":35},
  {"playerId":12,"gameId":36},
  {"playerId":12,"gameId":40},
  {"playerId":12,"gameId":45},
  {"playerId":12,"gameId":47},
  {"playerId":12,"gameId":49},
  {"playerId":16,"gameId":7},
  {"playerId":16,"gameId":8},
  {"playerId":16,"gameId":10},
  {"playerId":16,"gameId":12},
  {"playerId":16,"gameId":14},
  {"playerId":16,"gameId":20},
  {"playerId":16,"gameId":22},
  {"playerId":16,"gameId":33},
  {"playerId":16,"gameId":35},
  {"playerId":16,"gameId":36},
  {"playerId":16,"gameId":46},
  {"playerId":16,"gameId":48},
  {"playerId":16,"gameId":52},
  {"playerId":16,"gameId":53},
  {"playerId":17,"gameId":4},
  {"playerId":17,"gameId":6},
  {"playerId":17,"gameId":7},
  {"playerId":17,"gameId":23},
  {"playerId":17,"gameId":39},
  {"playerId":17,"gameId":44},
  {"playerId":17,"gameId":46},
  {"playerId":17,"gameId":50},
  {"playerId":17,"gameId":53},
  {"playerId":17,"gameId":54},
  {"playerId":19,"gameId":5},
  {"playerId":19,"gameId":6},
  {"playerId":19,"gameId":7},
  {"playerId":19,"gameId":10},
  {"playerId":19,"gameId":11},
  {"playerId":19,"gameId":13},
  {"playerId":19,"gameId":16},
  {"playerId":19,"gameId":17},
  {"playerId":19,"gameId":20},
  {"playerId":19,"gameId":21},
  {"playerId":19,"gameId":24},
  {"playerId":19,"gameId":27},
  {"playerId":19,"gameId":28},
  {"playerId":19,"gameId":29},
  {"playerId":19,"gameId":35},
  {"playerId":19,"gameId":36},
  {"playerId":19,"gameId":37},
  {"playerId":19,"gameId":48},
  {"playerId":19,"gameId":49},
  {"playerId":19,"gameId":50},
  {"playerId":19,"gameId":51},
  {"playerId":20,"gameId":8},
  {"playerId":22,"gameId":5},
  {"playerId":22,"gameId":11},
  {"playerId":22,"gameId":16},
  {"playerId":22,"gameId":20},
  {"playerId":22,"gameId":23},
  {"playerId":22,"gameId":35},
  {"playerId":22,"gameId":36},
  {"playerId":22,"gameId":37},
  {"playerId":22,"gameId":39},
  {"playerId":22,"gameId":42},
  {"playerId":23,"gameId":49},
  {"playerId":24,"gameId":3},
  {"playerId":24,"gameId":22},
  {"playerId":24,"gameId":23},
  {"playerId":24,"gameId":25},
  {"playerId":24,"gameId":27},
  {"playerId":24,"gameId":45},
  {"playerId":24,"gameId":46},
  {"playerId":24,"gameId":49},
  {"playerId":24,"gameId":50},
  {"playerId":24,"gameId":51},
  {"playerId":24,"gameId":53},
  {"playerId":24,"gameId":54},
  {"playerId":25,"gameId":3},
  {"playerId":25,"gameId":6},
  {"playerId":25,"gameId":9},
  {"playerId":25,"gameId":20},
  {"playerId":25,"gameId":31},
  {"playerId":25,"gameId":36},
  {"playerId":25,"gameId":43},
  {"playerId":28,"gameId":8},
  {"playerId":29,"gameId":10},
  {"playerId":29,"gameId":13},
  {"playerId":29,"gameId":17},
  {"playerId":29,"gameId":34},
  {"playerId":29,"gameId":43},
  {"playerId":29,"gameId":54}
]
